<svg width="19" height="22" viewBox="0 0 19 22" fill="none" xmlns="http://www.w3.org/2000/svg">
<g clip-path="url(#clip0)">
<path d="M15.3491 12.5436C15.3491 13.5861 15.3288 14.3679 14.794 15.2784L9.0842 12.6452L9.03004 6.6104C10.009 6.59324 10.9783 6.806 11.8601 7.23162C12.7418 7.6572 13.5114 8.28372 14.107 9.06086C14.884 10.0584 15.3195 11.2795 15.3491 12.5436ZM10.2722 3.57102H10.147V2.29163H10.6547H10.9457H11.2503C11.3665 2.30433 11.4841 2.29251 11.5955 2.25695C11.7068 2.22139 11.8095 2.16287 11.8968 2.08517C12.5467 1.36763 12.5467 0.846399 11.8968 0.186401C11.821 0.116002 11.7311 0.0624237 11.6331 0.0291765C11.5351 -0.00407058 11.4312 -0.016236 11.3282 -0.00652253C11.2233 -0.00652253 11.1116 -0.00652256 10.9897 0.0137851C10.8679 0.0340928 10.763 0.0307082 10.6513 0.0307082H8.01466C7.89281 0.0307082 7.77435 0.0307082 7.65927 0.0307082H7.28696C7.19558 0.0238531 7.10379 0.0356173 7.01711 0.0652885C6.9304 0.0949594 6.85065 0.14192 6.78266 0.203324C6.13281 0.920864 6.13281 1.44548 6.78266 2.10548C6.87215 2.17986 6.97612 2.23482 7.08802 2.26686C7.19988 2.29891 7.31719 2.30734 7.4325 2.29163H7.73712H8.01466H8.5325V3.5744H8.40727C6.04864 3.81146 3.87131 4.94595 2.32564 6.74321C0.77997 8.54051 -0.0158243 10.8631 0.10285 13.2307C0.221525 15.5982 1.24559 17.8296 2.96324 19.4633C4.68091 21.097 6.96076 22.0081 9.33127 22.0081C11.7018 22.0081 13.9816 21.097 15.6993 19.4633C17.417 17.8296 18.441 15.5982 18.5597 13.2307C18.6784 10.8631 17.8826 8.54051 16.3369 6.74321C14.7912 4.94595 12.6139 3.81146 10.2553 3.5744L10.2722 3.57102ZM14.8076 17.7559C13.5772 19.1069 11.8881 19.9515 10.0691 20.1252H9.90666H8.78973H8.63066C7.39605 20.0092 6.21066 19.5836 5.1842 18.8879C4.15775 18.1921 3.32339 17.2487 2.75834 16.1449C2.33137 15.3073 2.06612 14.3967 1.9765 13.4609V13.3018V12.2018V12.0393C2.08004 10.9453 2.42697 9.88834 2.99188 8.94579C3.35903 8.33131 3.81526 7.77471 4.34573 7.29409C5.20695 6.50798 6.24301 5.93829 7.3682 5.63225C8.009 5.45716 8.67032 5.36838 9.33466 5.36825C10.7833 5.36486 12.2009 5.78801 13.4107 6.58488C14.6205 7.38179 15.5689 8.51716 16.1377 9.84948C16.687 11.1597 16.8513 12.5994 16.6115 13.9998C16.3717 15.4001 15.7377 16.7031 14.7839 17.7559H14.8076ZM18.5882 5.16179L17.4476 4.12609L16.3679 3.14456C16.3593 3.1365 16.3492 3.13026 16.3381 3.12619C16.3271 3.12212 16.3153 3.12031 16.3036 3.12086C16.2843 3.12105 16.2654 3.12694 16.2494 3.13778L14.838 4.13286C14.8266 4.14092 14.8173 4.15155 14.8109 4.1639C14.8044 4.17625 14.8009 4.19 14.8008 4.20394C14.7994 4.21758 14.8011 4.23136 14.8059 4.24425C14.8105 4.25715 14.8181 4.26882 14.8279 4.2784L16.2291 5.5544L17.583 6.80333C17.5935 6.8126 17.6059 6.81954 17.6193 6.82363C17.6328 6.82769 17.6469 6.82888 17.6608 6.82702C17.6748 6.82563 17.6882 6.82089 17.7 6.81324C17.7118 6.80559 17.7215 6.79524 17.7285 6.78302L18.5882 5.27686C18.602 5.26089 18.6096 5.24045 18.6096 5.21933C18.6096 5.19821 18.602 5.17776 18.5882 5.16179ZM0.940804 6.82702C0.954725 6.82908 0.968933 6.82803 0.982397 6.82394C0.995865 6.81984 1.00825 6.8128 1.01865 6.80333L2.52819 5.42917L3.79066 4.2784C3.80037 4.26859 3.80809 4.25698 3.8133 4.24422C3.81851 4.23142 3.82119 4.21775 3.82112 4.20394C3.81963 4.18993 3.81526 4.17636 3.80829 4.16414C3.80128 4.15189 3.79184 4.14126 3.7805 4.13286L2.36911 3.13778C2.35312 3.12694 2.33428 3.12105 2.31496 3.12086C2.30371 3.12038 2.29249 3.12223 2.282 3.12631C2.27152 3.13039 2.262 3.1366 2.25403 3.14456L1.24542 4.07194L0.030341 5.16179C0.0156225 5.17665 0.00604207 5.19584 0.00299768 5.21655C-4.66986e-05 5.23726 0.00360427 5.25838 0.0134179 5.27686L0.876496 6.78302C0.883116 6.7948 0.892363 6.80488 0.903512 6.81253C0.914664 6.82015 0.927424 6.82512 0.940804 6.82702Z" fill="#272727"/>
</g>
<defs>
<clipPath id="clip0">
<rect width="18.9538" height="22" fill="white"/>
</clipPath>
</defs>
</svg>
