<svg width="22" height="22" viewBox="0 0 22 22" fill="none" xmlns="http://www.w3.org/2000/svg">
<g clip-path="url(#clip0)">
<path d="M8.75512 16.8371C13.2185 16.8371 16.8368 13.2188 16.8368 8.75546C16.8368 4.2921 13.2185 0.673828 8.75512 0.673828C4.29176 0.673828 0.673492 4.2921 0.673492 8.75546C0.673492 13.2188 4.29176 16.8371 8.75512 16.8371Z" stroke="#272727" stroke-width="1.32" stroke-linecap="round" stroke-linejoin="round"/>
<path d="M20.9674 20.9313C20.7137 21.1814 20.3718 21.3215 20.0155 21.3215C19.6593 21.3215 19.3174 21.1814 19.0637 20.9313L15.8849 17.7525C15.6349 17.4988 15.4947 17.1569 15.4947 16.8007C15.4947 16.4445 15.6349 16.1025 15.8849 15.8488V15.8488C16.0094 15.7229 16.1576 15.6228 16.321 15.5546C16.4844 15.4863 16.6597 15.4512 16.8368 15.4512C17.0139 15.4512 17.1892 15.4863 17.3526 15.5546C17.5159 15.6228 17.6642 15.7229 17.7886 15.8488L20.9674 19.0276C21.2174 19.2813 21.3576 19.6232 21.3576 19.9795C21.3576 20.3357 21.2174 20.6776 20.9674 20.9313Z" stroke="#272727" stroke-width="1.32" stroke-linecap="round" stroke-linejoin="round"/>
<path d="M15.9388 15.9385L14.1429 14.1426" stroke="#272727" stroke-width="1.32" stroke-miterlimit="10"/>
</g>
<defs>
<clipPath id="clip0">
<rect width="22" height="22" fill="white"/>
</clipPath>
</defs>
</svg>
