<svg width="12" height="17" viewBox="0 0 12 17" fill="none" xmlns="http://www.w3.org/2000/svg">
<path d="M9.00065 1.66992H11.6673V15.0033V15.6699H3.00065H0.333984V13.0313V1.66992H3.00065" stroke="white" stroke-width="0.666667" stroke-linecap="round" stroke-linejoin="round"/>
<path fill-rule="evenodd" clip-rule="evenodd" d="M9 1.66927V2.33594H3V1.66927C3 0.933271 3.59733 0.335938 4.33333 0.335938H7.66667C8.40267 0.335938 9 0.933271 9 1.66927Z" stroke="white" stroke-width="0.666667" stroke-linecap="round" stroke-linejoin="round"/>
<path d="M1.66797 6.33659L3.0013 7.66992L5.0013 5.66992" stroke="white" stroke-width="0.666667" stroke-linejoin="round"/>
<path d="M1.66797 10.3366L3.0013 11.6699L5.0013 9.66992" stroke="white" stroke-width="0.666667" stroke-linejoin="round"/>
<path d="M6.66797 7.00391H10.0013" stroke="white" stroke-width="0.666667" stroke-linecap="round" stroke-linejoin="round"/>
<path d="M6.66797 11.0039H10.0013" stroke="white" stroke-width="0.666667" stroke-linecap="round" stroke-linejoin="round"/>
</svg>
