<svg width="14" height="14" viewBox="0 0 14 14" fill="white" xmlns="http://www.w3.org/2000/svg">
<path fill-rule="evenodd" clip-rule="evenodd" d="M3.25 10.75L1.25 8.75L9.75 0.25L11.75 2.25L3.25 10.75Z" stroke="#6D6D6D" stroke-width="0.5" stroke-linecap="round" stroke-linejoin="round"/>
<path d="M0.25 11.75L3.25 10.75L1.25 8.75L0.25 11.75" stroke="#6D6D6D" stroke-width="0.5" stroke-linecap="round" stroke-linejoin="round"/>
<path d="M8.25 1.75L10.25 3.75" stroke="#6D6D6D" stroke-width="0.5" stroke-linecap="round" stroke-linejoin="round"/>
</svg>
