<svg width="93" height="66" viewBox="0 0 93 66" fill="none" xmlns="http://www.w3.org/2000/svg">
<path d="M1.94141 1.94141H90.0708V61.3414C90.0708 62.5061 89.2944 63.2826 88.1296 63.2826H3.88258C2.71788 63.2826 1.94141 62.5061 1.94141 61.3414V1.94141Z" stroke="#31C963" stroke-width="3.88235" stroke-linecap="round" stroke-linejoin="round"/>
<path d="M43.6767 34.5532L1.94141 1.94141H90.0708L48.3355 34.5532C46.9767 35.7179 45.0355 35.7179 43.6767 34.5532Z" stroke="#31C963" stroke-width="3.88235" stroke-linecap="round" stroke-linejoin="round"/>
</svg>
