<svg width="12" height="19" viewBox="0 0 12 19" fill="none" xmlns="http://www.w3.org/2000/svg">
<path d="M4.6875 11.4798L0.3125 5.93815L4.6875 0.396484" stroke="#C3E9D0" stroke-width="0.625" stroke-linecap="round" stroke-linejoin="round"/>
<path d="M0.3125 5.9375H7.1875C9.25813 5.9375 10.9375 8.06471 10.9375 10.6875V18.6042" stroke="#C3E9D0" stroke-width="0.625" stroke-linecap="round"/>
</svg>
