<svg width="31" height="31" viewBox="0 0 31 31" fill="none" xmlns="http://www.w3.org/2000/svg">
<rect width="30.8" height="30.8" rx="1.95556" fill="white"/>
<g clip-path="url(#clip0)">
<path d="M25.6669 16.1414C25.6669 15.3937 25.6084 14.6419 25.4838 13.9062H15.4863V18.1421H21.2114C20.9738 19.5083 20.2105 20.7168 19.0927 21.4848V24.2333H22.5083C24.5141 22.3174 25.6669 19.4881 25.6669 16.1414Z" fill="#4285F4"/>
<path d="M15.4873 26.8887C18.346 26.8887 20.7567 25.9146 22.5132 24.2332L19.0976 21.4847C18.1474 22.1557 16.9206 22.5356 15.4912 22.5356C12.726 22.5356 10.3815 20.5996 9.54025 17.9966H6.01562V20.8299C7.81494 24.5444 11.4798 26.8887 15.4873 26.8887Z" fill="#34A853"/>
<path d="M9.53494 17.9967C9.09096 16.6305 9.09096 15.1512 9.53494 13.785V10.9517H6.01421C4.51089 14.0599 4.51089 17.7218 6.01421 20.83L9.53494 17.9967Z" fill="#FBBC04"/>
<path d="M15.4873 9.24204C16.9984 9.21779 18.4589 9.8079 19.5533 10.8911L22.5794 7.75058C20.6633 5.88323 18.1201 4.85659 15.4873 4.88892C11.4798 4.88892 7.81494 7.23322 6.01562 10.9518L9.53636 13.7851C10.3737 11.1781 12.7222 9.24204 15.4873 9.24204Z" fill="#EA4335"/>
</g>
<defs>
<clipPath id="clip0">
<rect width="20.7778" height="22" fill="white" transform="translate(4.89062 4.88867)"/>
</clipPath>
</defs>
</svg>
