<svg width="18" height="15" viewBox="0 0 18 15" fill="none" xmlns="http://www.w3.org/2000/svg">
<g clip-path="url(#clip0_648:40787)">
<path d="M12.8754 3.53464L12.4104 1.20958C12.3793 1.05562 12.2965 0.916944 12.1756 0.81663C12.0547 0.716315 11.9032 0.660406 11.7461 0.658203H5.32895C5.17189 0.660406 5.02033 0.716315 4.89947 0.81663C4.77861 0.916944 4.69574 1.05562 4.66464 1.20958L4.19963 3.53464C4.17203 3.69001 4.09003 3.83048 3.96831 3.93089C3.84659 4.03131 3.6931 4.08513 3.53532 4.08269H2.034C1.6722 4.08269 1.32513 4.22595 1.06868 4.48116C0.812236 4.73636 0.667284 5.08273 0.665527 5.44452V12.9711C0.665527 13.334 0.809705 13.6821 1.06634 13.9387C1.32298 14.1954 1.67105 14.3396 2.034 14.3396H15.0212C15.3841 14.3396 15.7322 14.1954 15.9888 13.9387C16.2454 13.6821 16.3896 13.334 16.3896 12.9711V5.44452C16.3896 5.08158 16.2454 4.7335 15.9888 4.47687C15.7322 4.22023 15.3841 4.07605 15.0212 4.07605H13.5398C13.3829 4.07875 13.2302 4.02588 13.1086 3.92679C12.987 3.8277 12.9044 3.68879 12.8754 3.53464V3.53464Z" stroke="white" stroke-width="1.32861" stroke-miterlimit="10"/>
<path d="M8.52705 12.2856C10.6036 12.2856 12.287 10.6022 12.287 8.52559C12.287 6.44902 10.6036 4.76562 8.52705 4.76562C6.45048 4.76562 4.76709 6.44902 4.76709 8.52559C4.76709 10.6022 6.45048 12.2856 8.52705 12.2856Z" stroke="white" stroke-width="1.32861" stroke-miterlimit="10"/>
<path d="M6.79688 2.69531H10.2579" stroke="white" stroke-width="1.16253" stroke-linecap="round" stroke-linejoin="round"/>
</g>
<defs>
<clipPath id="clip0_648:40787">
<rect width="17.0527" height="15" fill="white"/>
</clipPath>
</defs>
</svg>
